{
  "page": 1,
  "per_page": 80,
  "photos": [
    {
      "id": 2050994,
      "width": 3648,
      "height": 5472,
      "url": "https://www.pexels.com/photo/woman-standing-near-yellow-petaled-flower-2050994/",
      "photographer": "Edu Carvalho",
      "photographer_url": "https://www.pexels.com/@educarvalho",
      "photographer_id": 1026575,
      "avg_color": "#5A4B39",
      "src": {
        "original": "https://images.pexels.com/photos/2050994/pexels-photo-2050994.jpeg",
        "large2x": "https://images.pexels.com/photos/2050994/pexels-photo-2050994.jpeg?auto=compress&cs=tinysrgb&dpr=2&h=650&w=940",
        "large": "https://images.pexels.com/photos/2050994/pexels-photo-2050994.jpeg?auto=compress&cs=tinysrgb&h=650&w=940",
        "medium": "https://images.pexels.com/photos/2050994/pexels-photo-2050994.jpeg?auto=compress&cs=tinysrgb&h=350",
        "small": "https://images.pexels.com/photos/2050994/pexels-photo-2050994.jpeg?auto=compress&cs=tinysrgb&h=130",
        "portrait": "https://images.pexels.com/photos/2050994/pexels-photo-2050994.jpeg?auto=compress&cs=tinysrgb&fit=crop&h=1200&w=800",
        "landscape": "https://images.pexels.com/photos/2050994/pexels-photo-2050994.jpeg?auto=compress&cs=tinysrgb&fit=crop&h=627&w=1200",
        "tiny": "https://images.pexels.com/photos/2050994/pexels-photo-2050994.jpeg?auto=compress&cs=tinysrgb&dpr=1&fit=crop&h=200&w=280"
      },
      "liked": false,
      "alt": "Woman Standing Near Yellow-petaled Flower"
    },
    {
      "id": 837358,
      "width": 6100,
      "height": 4067,
      "url": "https://www.pexels.com/photo/man-in-brown-coat-and-gray-backpack-posing-for-a-photo-837358/",
      "photographer": "Andrea Piacquadio",
      "photographer_url": "https://www.pexels.com/@olly",
      "photographer_id": 224453,
      "avg_color": "#988974",
      "src": {
        "original": "https://images.pexels.com/photos/837358/pexels-photo-837358.jpeg",
        "large2x": "https://images.pexels.com/photos/837358/pexels-photo-837358.jpeg?auto=compress&cs=tinysrgb&dpr=2&h=650&w=940",
        "large": "https://images.pexels.com/photos/837358/pexels-photo-837358.jpeg?auto=compress&cs=tinysrgb&h=650&w=940",
        "medium": "https://images.pexels.com/photos/837358/pexels-photo-837358.jpeg?auto=compress&cs=tinysrgb&h=350",
        "small": "https://images.pexels.com/photos/837358/pexels-photo-837358.jpeg?auto=compress&cs=tinysrgb&h=130",
        "portrait": "https://images.pexels.com/photos/837358/pexels-photo-837358.jpeg?auto=compress&cs=tinysrgb&fit=crop&h=1200&w=800",
        "landscape": "https://images.pexels.com/photos/837358/pexels-photo-837358.jpeg?auto=compress&cs=tinysrgb&fit=crop&h=627&w=1200",
        "tiny": "https://images.pexels.com/photos/837358/pexels-photo-837358.jpeg?auto=compress&cs=tinysrgb&dpr=1&fit=crop&h=200&w=280"
      },
      "liked": false,
      "alt": "Man in Brown Coat and Gray Backpack Posing for a Photo"
    },
    {
      "id": 39866,
      "width": 4928,
      "height": 3264,
      "url": "https://www.pexels.com/photo/person-in-blue-denim-jacket-sitting-on-chair-while-writing-39866/",
      "photographer": "Pixabay",
      "photographer_url": "https://www.pexels.com/@pixabay",
      "photographer_id": 2659,
      "avg_color": "#56524C",
      "src": {
        "original": "https://images.pexels.com/photos/39866/entrepreneur-startup-start-up-man-39866.jpeg",
        "large2x": "https://images.pexels.com/photos/39866/entrepreneur-startup-start-up-man-39866.jpeg?auto=compress&cs=tinysrgb&dpr=2&h=650&w=940",
        "large": "https://images.pexels.com/photos/39866/entrepreneur-startup-start-up-man-39866.jpeg?auto=compress&cs=tinysrgb&h=650&w=940",
        "medium": "https://images.pexels.com/photos/39866/entrepreneur-startup-start-up-man-39866.jpeg?auto=compress&cs=tinysrgb&h=350",
        "small": "https://images.pexels.com/photos/39866/entrepreneur-startup-start-up-man-39866.jpeg?auto=compress&cs=tinysrgb&h=130",
        "portrait": "https://images.pexels.com/photos/39866/entrepreneur-startup-start-up-man-39866.jpeg?auto=compress&cs=tinysrgb&fit=crop&h=1200&w=800",
        "landscape": "https://images.pexels.com/photos/39866/entrepreneur-startup-start-up-man-39866.jpeg?auto=compress&cs=tinysrgb&fit=crop&h=627&w=1200",
        "tiny": "https://images.pexels.com/photos/39866/entrepreneur-startup-start-up-man-39866.jpeg?auto=compress&cs=tinysrgb&dpr=1&fit=crop&h=200&w=280"
      },
      "liked": false,
      "alt": "Person in Blue Denim Jacket Sitting on Chair While Writing"
    },
    {
      "id": 445109,
      "width": 7016,
      "height": 4405,
      "url": "https://www.pexels.com/photo/woman-holding-blue-smoke-flare-445109/",
      "photographer": "Trinity  Kubassek",
      "photographer_url": "https://www.pexels.com/@trinitykubassek",
      "photographer_id": 60607,
      "avg_color": "#4A8697",
      "src": {
        "original": "https://images.pexels.com/photos/445109/pexels-photo-445109.jpeg",
        "large2x": "https://images.pexels.com/photos/445109/pexels-photo-445109.jpeg?auto=compress&cs=tinysrgb&dpr=2&h=650&w=940",
        "large": "https://images.pexels.com/photos/445109/pexels-photo-445109.jpeg?auto=compress&cs=tinysrgb&h=650&w=940",
        "medium": "https://images.pexels.com/photos/445109/pexels-photo-445109.jpeg?auto=compress&cs=tinysrgb&h=350",
        "small": "https://images.pexels.com/photos/445109/pexels-photo-445109.jpeg?auto=compress&cs=tinysrgb&h=130",
        "portrait": "https://images.pexels.com/photos/445109/pexels-photo-445109.jpeg?auto=compress&cs=tinysrgb&fit=crop&h=1200&w=800",
        "landscape": "https://images.pexels.com/photos/445109/pexels-photo-445109.jpeg?auto=compress&cs=tinysrgb&fit=crop&h=627&w=1200",
        "tiny": "https://images.pexels.com/photos/445109/pexels-photo-445109.jpeg?auto=compress&cs=tinysrgb&dpr=1&fit=crop&h=200&w=280"
      },
      "liked": false,
      "alt": "Woman Holding Blue Smoke Flare"
    },
    {
      "id": 1709003,
      "width": 3600,
      "height": 2400,
      "url": "https://www.pexels.com/photo/man-standing-in-front-of-people-1709003/",
      "photographer": "ICSA",
      "photographer_url": "https://www.pexels.com/@icsa-833425",
      "photographer_id": 833425,
      "avg_color": "#7C766A",
      "src": {
        "original": "https://images.pexels.com/photos/1709003/pexels-photo-1709003.jpeg",
        "large2x": "https://images.pexels.com/photos/1709003/pexels-photo-1709003.jpeg?auto=compress&cs=tinysrgb&dpr=2&h=650&w=940",
        "large": "https://images.pexels.com/photos/1709003/pexels-photo-1709003.jpeg?auto=compress&cs=tinysrgb&h=650&w=940",
        "medium": "https://images.pexels.com/photos/1709003/pexels-photo-1709003.jpeg?auto=compress&cs=tinysrgb&h=350",
        "small": "https://images.pexels.com/photos/1709003/pexels-photo-1709003.jpeg?auto=compress&cs=tinysrgb&h=130",
        "portrait": "https://images.pexels.com/photos/1709003/pexels-photo-1709003.jpeg?auto=compress&cs=tinysrgb&fit=crop&h=1200&w=800",
        "landscape": "https://images.pexels.com/photos/1709003/pexels-photo-1709003.jpeg?auto=compress&cs=tinysrgb&fit=crop&h=627&w=1200",
        "tiny": "https://images.pexels.com/photos/1709003/pexels-photo-1709003.jpeg?auto=compress&cs=tinysrgb&dpr=1&fit=crop&h=200&w=280"
      },
      "liked": false,
      "alt": "Man Standing In Front Of People "
    },
    {
      "id": 240561,
      "width": 6016,
      "height": 4000,
      "url": "https://www.pexels.com/photo/aerial-view-of-fisherman-on-boat-240561/",
      "photographer": "lecreusois",
      "photographer_url": "https://www.pexels.com/@lecreusois-68145",
      "photographer_id": 68145,
      "avg_color": "#33777A",
      "src": {
        "original": "https://images.pexels.com/photos/240561/pexels-photo-240561.jpeg",
        "large2x": "https://images.pexels.com/photos/240561/pexels-photo-240561.jpeg?auto=compress&cs=tinysrgb&dpr=2&h=650&w=940",
        "large": "https://images.pexels.com/photos/240561/pexels-photo-240561.jpeg?auto=compress&cs=tinysrgb&h=650&w=940",
        "medium": "https://images.pexels.com/photos/240561/pexels-photo-240561.jpeg?auto=compress&cs=tinysrgb&h=350",
        "small": "https://images.pexels.com/photos/240561/pexels-photo-240561.jpeg?auto=compress&cs=tinysrgb&h=130",
        "portrait": "https://images.pexels.com/photos/240561/pexels-photo-240561.jpeg?auto=compress&cs=tinysrgb&fit=crop&h=1200&w=800",
        "landscape": "https://images.pexels.com/photos/240561/pexels-photo-240561.jpeg?auto=compress&cs=tinysrgb&fit=crop&h=627&w=1200",
        "tiny": "https://images.pexels.com/photos/240561/pexels-photo-240561.jpeg?auto=compress&cs=tinysrgb&dpr=1&fit=crop&h=200&w=280"
      },
      "liked": false,
      "alt": "Aerial View of Fisherman on Boat"
    },
    {
      "id": 889545,
      "width": 4060,
      "height": 2284,
      "url": "https://www.pexels.com/photo/group-of-people-on-road-with-assorted-color-smokes-889545/",
      "photographer": "GEORGE DESIPRIS",
      "photographer_url": "https://www.pexels.com/@george-desipris",
      "photographer_id": 228078,
      "avg_color": "#55384F",
      "src": {
        "original": "https://images.pexels.com/photos/889545/pexels-photo-889545.jpeg",
        "large2x": "https://images.pexels.com/photos/889545/pexels-photo-889545.jpeg?auto=compress&cs=tinysrgb&dpr=2&h=650&w=940",
        "large": "https://images.pexels.com/photos/889545/pexels-photo-889545.jpeg?auto=compress&cs=tinysrgb&h=650&w=940",
        "medium": "https://images.pexels.com/photos/889545/pexels-photo-889545.jpeg?auto=compress&cs=tinysrgb&h=350",
        "small": "https://images.pexels.com/photos/889545/pexels-photo-889545.jpeg?auto=compress&cs=tinysrgb&h=130",
        "portrait": "https://images.pexels.com/photos/889545/pexels-photo-889545.jpeg?auto=compress&cs=tinysrgb&fit=crop&h=1200&w=800",
        "landscape": "https://images.pexels.com/photos/889545/pexels-photo-889545.jpeg?auto=compress&cs=tinysrgb&fit=crop&h=627&w=1200",
        "tiny": "https://images.pexels.com/photos/889545/pexels-photo-889545.jpeg?auto=compress&cs=tinysrgb&dpr=1&fit=crop&h=200&w=280"
      },
      "liked": false,
      "alt": "Group of People on Road With Assorted-color Smokes"
    },
    {
      "id": 699459,
      "width": 3024,
      "height": 4032,
      "url": "https://www.pexels.com/photo/turned-on-gray-laptop-computer-on-table-699459/",
      "photographer": "Flo Dahm",
      "photographer_url": "https://www.pexels.com/@flodahm",
      "photographer_id": 154317,
      "avg_color": "#AAA3A1",
      "src": {
        "original": "https://images.pexels.com/photos/699459/pexels-photo-699459.jpeg",
        "large2x": "https://images.pexels.com/photos/699459/pexels-photo-699459.jpeg?auto=compress&cs=tinysrgb&dpr=2&h=650&w=940",
        "large": "https://images.pexels.com/photos/699459/pexels-photo-699459.jpeg?auto=compress&cs=tinysrgb&h=650&w=940",
        "medium": "https://images.pexels.com/photos/699459/pexels-photo-699459.jpeg?auto=compress&cs=tinysrgb&h=350",
        "small": "https://images.pexels.com/photos/699459/pexels-photo-699459.jpeg?auto=compress&cs=tinysrgb&h=130",
        "portrait": "https://images.pexels.com/photos/699459/pexels-photo-699459.jpeg?auto=compress&cs=tinysrgb&fit=crop&h=1200&w=800",
        "landscape": "https://images.pexels.com/photos/699459/pexels-photo-699459.jpeg?auto=compress&cs=tinysrgb&fit=crop&h=627&w=1200",
        "tiny": "https://images.pexels.com/photos/699459/pexels-photo-699459.jpeg?auto=compress&cs=tinysrgb&dpr=1&fit=crop&h=200&w=280"
      },
      "liked": false,
      "alt": "Turned-on Gray Laptop Computer on Table"
    },
    {
      "id": 301930,
      "width": 5133,
      "height": 3422,
      "url": "https://www.pexels.com/photo/group-of-people-inside-building-301930/",
      "photographer": "Riccardo",
      "photographer_url": "https://www.pexels.com/@riciardus",
      "photographer_id": 6950,
      "avg_color": "#878A87",
      "src": {
        "original": "https://images.pexels.com/photos/301930/pexels-photo-301930.jpeg",
        "large2x": "https://images.pexels.com/photos/301930/pexels-photo-301930.jpeg?auto=compress&cs=tinysrgb&dpr=2&h=650&w=940",
        "large": "https://images.pexels.com/photos/301930/pexels-photo-301930.jpeg?auto=compress&cs=tinysrgb&h=650&w=940",
        "medium": "https://images.pexels.com/photos/301930/pexels-photo-301930.jpeg?auto=compress&cs=tinysrgb&h=350",
        "small": "https://images.pexels.com/photos/301930/pexels-photo-301930.jpeg?auto=compress&cs=tinysrgb&h=130",
        "portrait": "https://images.pexels.com/photos/301930/pexels-photo-301930.jpeg?auto=compress&cs=tinysrgb&fit=crop&h=1200&w=800",
        "landscape": "https://images.pexels.com/photos/301930/pexels-photo-301930.jpeg?auto=compress&cs=tinysrgb&fit=crop&h=627&w=1200",
        "tiny": "https://images.pexels.com/photos/301930/pexels-photo-301930.jpeg?auto=compress&cs=tinysrgb&dpr=1&fit=crop&h=200&w=280"
      },
      "liked": false,
      "alt": "Group of People Inside Building"
    },
    {
      "id": 1245055,
      "width": 5184,
      "height": 3456,
      "url": "https://www.pexels.com/photo/grayscale-photography-of-people-1245055/",
      "photographer": "Paweł L.",
      "photographer_url": "https://www.pexels.com/@pawel-l-435199",
      "photographer_id": 435199,
      "avg_color": "#7F7F7F",
      "src": {
        "original": "https://images.pexels.com/photos/1245055/pexels-photo-1245055.jpeg",
        "large2x": "https://images.pexels.com/photos/1245055/pexels-photo-1245055.jpeg?auto=compress&cs=tinysrgb&dpr=2&h=650&w=940",
        "large": "https://images.pexels.com/photos/1245055/pexels-photo-1245055.jpeg?auto=compress&cs=tinysrgb&h=650&w=940",
        "medium": "https://images.pexels.com/photos/1245055/pexels-photo-1245055.jpeg?auto=compress&cs=tinysrgb&h=350",
        "small": "https://images.pexels.com/photos/1245055/pexels-photo-1245055.jpeg?auto=compress&cs=tinysrgb&h=130",
        "portrait": "https://images.pexels.com/photos/1245055/pexels-photo-1245055.jpeg?auto=compress&cs=tinysrgb&fit=crop&h=1200&w=800",
        "landscape": "https://images.pexels.com/photos/1245055/pexels-photo-1245055.jpeg?auto=compress&cs=tinysrgb&fit=crop&h=627&w=1200",
        "tiny": "https://images.pexels.com/photos/1245055/pexels-photo-1245055.jpeg?auto=compress&cs=tinysrgb&dpr=1&fit=crop&h=200&w=280"
      },
      "liked": false,
      "alt": "Grayscale Photography Of People "
    }
  ],
  "total_results": 8000,
  "next_page": "https://api.pexels.com/v1/search/?locale=zh-CN&page=2&per_page=80&query=cat"
}
