{
  "page": 1,
  "per_page": 80,
  "photos": [
    {
      "id": 1170986,
      "width": 1771,
      "height": 2657,
      "url": "https://www.pexels.com/zh-cn/photo/1170986/",
      "photographer": "EVG Kowalievska",
      "photographer_url": "https://www.pexels.com/zh-cn/@evgphotos",
      "photographer_id": 391109,
      "avg_color": "#BEAE9E",
      "src": {
        "original": "https://images.pexels.com/photos/1170986/pexels-photo-1170986.jpeg",
        "large2x": "https://images.pexels.com/photos/1170986/pexels-photo-1170986.jpeg?auto=compress&cs=tinysrgb&dpr=2&h=650&w=940",
        "large": "https://images.pexels.com/photos/1170986/pexels-photo-1170986.jpeg?auto=compress&cs=tinysrgb&h=650&w=940",
        "medium": "https://images.pexels.com/photos/1170986/pexels-photo-1170986.jpeg?auto=compress&cs=tinysrgb&h=350",
        "small": "https://images.pexels.com/photos/1170986/pexels-photo-1170986.jpeg?auto=compress&cs=tinysrgb&h=130",
        "portrait": "https://images.pexels.com/photos/1170986/pexels-photo-1170986.jpeg?auto=compress&cs=tinysrgb&fit=crop&h=1200&w=800",
        "landscape": "https://images.pexels.com/photos/1170986/pexels-photo-1170986.jpeg?auto=compress&cs=tinysrgb&fit=crop&h=627&w=1200",
        "tiny": "https://images.pexels.com/photos/1170986/pexels-photo-1170986.jpeg?auto=compress&cs=tinysrgb&dpr=1&fit=crop&h=200&w=280"
      },
      "liked": false,
      "alt": "橙色虎斑猫的选择性聚焦摄影"
    },
    {
      "id": 1741205,
      "width": 3744,
      "height": 5616,
      "url": "https://www.pexels.com/zh-cn/photo/1741205/",
      "photographer": "Lina Kivaka",
      "photographer_url": "https://www.pexels.com/zh-cn/@lina",
      "photographer_id": 593836,
      "avg_color": "#9D8E8B",
      "src": {
        "original": "https://images.pexels.com/photos/1741205/pexels-photo-1741205.jpeg",
        "large2x": "https://images.pexels.com/photos/1741205/pexels-photo-1741205.jpeg?auto=compress&cs=tinysrgb&dpr=2&h=650&w=940",
        "large": "https://images.pexels.com/photos/1741205/pexels-photo-1741205.jpeg?auto=compress&cs=tinysrgb&h=650&w=940",
        "medium": "https://images.pexels.com/photos/1741205/pexels-photo-1741205.jpeg?auto=compress&cs=tinysrgb&h=350",
        "small": "https://images.pexels.com/photos/1741205/pexels-photo-1741205.jpeg?auto=compress&cs=tinysrgb&h=130",
        "portrait": "https://images.pexels.com/photos/1741205/pexels-photo-1741205.jpeg?auto=compress&cs=tinysrgb&fit=crop&h=1200&w=800",
        "landscape": "https://images.pexels.com/photos/1741205/pexels-photo-1741205.jpeg?auto=compress&cs=tinysrgb&fit=crop&h=627&w=1200",
        "tiny": "https://images.pexels.com/photos/1741205/pexels-photo-1741205.jpeg?auto=compress&cs=tinysrgb&dpr=1&fit=crop&h=200&w=280"
      },
      "liked": false,
      "alt": "坐在白色桌子上的红色手帕的橙色虎斑猫"
    },
    {
      "id": 57416,
      "width": 2557,
      "height": 1704,
      "url": "https://www.pexels.com/zh-cn/photo/57416/",
      "photographer": "Pixabay",
      "photographer_url": "https://www.pexels.com/zh-cn/@pixabay",
      "photographer_id": 2659,
      "avg_color": "#9B9A86",
      "src": {
        "original": "https://images.pexels.com/photos/57416/cat-sweet-kitty-animals-57416.jpeg",
        "large2x": "https://images.pexels.com/photos/57416/cat-sweet-kitty-animals-57416.jpeg?auto=compress&cs=tinysrgb&dpr=2&h=650&w=940",
        "large": "https://images.pexels.com/photos/57416/cat-sweet-kitty-animals-57416.jpeg?auto=compress&cs=tinysrgb&h=650&w=940",
        "medium": "https://images.pexels.com/photos/57416/cat-sweet-kitty-animals-57416.jpeg?auto=compress&cs=tinysrgb&h=350",
        "small": "https://images.pexels.com/photos/57416/cat-sweet-kitty-animals-57416.jpeg?auto=compress&cs=tinysrgb&h=130",
        "portrait": "https://images.pexels.com/photos/57416/cat-sweet-kitty-animals-57416.jpeg?auto=compress&cs=tinysrgb&fit=crop&h=1200&w=800",
        "landscape": "https://images.pexels.com/photos/57416/cat-sweet-kitty-animals-57416.jpeg?auto=compress&cs=tinysrgb&fit=crop&h=627&w=1200",
        "tiny": "https://images.pexels.com/photos/57416/cat-sweet-kitty-animals-57416.jpeg?auto=compress&cs=tinysrgb&dpr=1&fit=crop&h=200&w=280"
      },
      "liked": false,
      "alt": "黄白猫"
    },
    {
      "id": 20787,
      "width": 3456,
      "height": 2304,
      "url": "https://www.pexels.com/zh-cn/photo/20787/",
      "photographer": "Krysten Merriman",
      "photographer_url": "https://www.pexels.com/zh-cn/@kmerriman",
      "photographer_id": 2364,
      "avg_color": "#59524F",
      "src": {
        "original": "https://images.pexels.com/photos/20787/pexels-photo.jpg",
        "large2x": "https://images.pexels.com/photos/20787/pexels-photo.jpg?auto=compress&cs=tinysrgb&dpr=2&h=650&w=940",
        "large": "https://images.pexels.com/photos/20787/pexels-photo.jpg?auto=compress&cs=tinysrgb&h=650&w=940",
        "medium": "https://images.pexels.com/photos/20787/pexels-photo.jpg?auto=compress&cs=tinysrgb&h=350",
        "small": "https://images.pexels.com/photos/20787/pexels-photo.jpg?auto=compress&cs=tinysrgb&h=130",
        "portrait": "https://images.pexels.com/photos/20787/pexels-photo.jpg?auto=compress&cs=tinysrgb&fit=crop&h=1200&w=800",
        "landscape": "https://images.pexels.com/photos/20787/pexels-photo.jpg?auto=compress&cs=tinysrgb&fit=crop&h=627&w=1200",
        "tiny": "https://images.pexels.com/photos/20787/pexels-photo.jpg?auto=compress&cs=tinysrgb&dpr=1&fit=crop&h=200&w=280"
      },
      "liked": false,
      "alt": "短毛灰猫"
    },
    {
      "id": 2071873,
      "width": 2326,
      "height": 3495,
      "url": "https://www.pexels.com/zh-cn/photo/2071873/",
      "photographer": "Wojciech Kumpicki",
      "photographer_url": "https://www.pexels.com/zh-cn/@wojciech-kumpicki-1084687",
      "photographer_id": 1084687,
      "avg_color": "#95948D",
      "src": {
        "original": "https://images.pexels.com/photos/2071873/pexels-photo-2071873.jpeg",
        "large2x": "https://images.pexels.com/photos/2071873/pexels-photo-2071873.jpeg?auto=compress&cs=tinysrgb&dpr=2&h=650&w=940",
        "large": "https://images.pexels.com/photos/2071873/pexels-photo-2071873.jpeg?auto=compress&cs=tinysrgb&h=650&w=940",
        "medium": "https://images.pexels.com/photos/2071873/pexels-photo-2071873.jpeg?auto=compress&cs=tinysrgb&h=350",
        "small": "https://images.pexels.com/photos/2071873/pexels-photo-2071873.jpeg?auto=compress&cs=tinysrgb&h=130",
        "portrait": "https://images.pexels.com/photos/2071873/pexels-photo-2071873.jpeg?auto=compress&cs=tinysrgb&fit=crop&h=1200&w=800",
        "landscape": "https://images.pexels.com/photos/2071873/pexels-photo-2071873.jpeg?auto=compress&cs=tinysrgb&fit=crop&h=627&w=1200",
        "tiny": "https://images.pexels.com/photos/2071873/pexels-photo-2071873.jpeg?auto=compress&cs=tinysrgb&dpr=1&fit=crop&h=200&w=280"
      },
      "liked": false,
      "alt": "橙色虎斑猫靠近窗口"
    },
    {
      "id": 1056251,
      "width": 5184,
      "height": 3456,
      "url": "https://www.pexels.com/zh-cn/photo/1056251/",
      "photographer": "Ihsan Adityawarman",
      "photographer_url": "https://www.pexels.com/zh-cn/@ihsanaditya",
      "photographer_id": 393334,
      "avg_color": "#908478",
      "src": {
        "original": "https://images.pexels.com/photos/1056251/pexels-photo-1056251.jpeg",
        "large2x": "https://images.pexels.com/photos/1056251/pexels-photo-1056251.jpeg?auto=compress&cs=tinysrgb&dpr=2&h=650&w=940",
        "large": "https://images.pexels.com/photos/1056251/pexels-photo-1056251.jpeg?auto=compress&cs=tinysrgb&h=650&w=940",
        "medium": "https://images.pexels.com/photos/1056251/pexels-photo-1056251.jpeg?auto=compress&cs=tinysrgb&h=350",
        "small": "https://images.pexels.com/photos/1056251/pexels-photo-1056251.jpeg?auto=compress&cs=tinysrgb&h=130",
        "portrait": "https://images.pexels.com/photos/1056251/pexels-photo-1056251.jpeg?auto=compress&cs=tinysrgb&fit=crop&h=1200&w=800",
        "landscape": "https://images.pexels.com/photos/1056251/pexels-photo-1056251.jpeg?auto=compress&cs=tinysrgb&fit=crop&h=627&w=1200",
        "tiny": "https://images.pexels.com/photos/1056251/pexels-photo-1056251.jpeg?auto=compress&cs=tinysrgb&dpr=1&fit=crop&h=200&w=280"
      },
      "liked": false,
      "alt": "睡觉的虎斑猫的特写摄影"
    },
    {
      "id": 208984,
      "width": 3989,
      "height": 5983,
      "url": "https://www.pexels.com/zh-cn/photo/208984/",
      "photographer": "Pixabay",
      "photographer_url": "https://www.pexels.com/zh-cn/@pixabay",
      "photographer_id": 2659,
      "avg_color": "#81786D",
      "src": {
        "original": "https://images.pexels.com/photos/208984/pexels-photo-208984.jpeg",
        "large2x": "https://images.pexels.com/photos/208984/pexels-photo-208984.jpeg?auto=compress&cs=tinysrgb&dpr=2&h=650&w=940",
        "large": "https://images.pexels.com/photos/208984/pexels-photo-208984.jpeg?auto=compress&cs=tinysrgb&h=650&w=940",
        "medium": "https://images.pexels.com/photos/208984/pexels-photo-208984.jpeg?auto=compress&cs=tinysrgb&h=350",
        "small": "https://images.pexels.com/photos/208984/pexels-photo-208984.jpeg?auto=compress&cs=tinysrgb&h=130",
        "portrait": "https://images.pexels.com/photos/208984/pexels-photo-208984.jpeg?auto=compress&cs=tinysrgb&fit=crop&h=1200&w=800",
        "landscape": "https://images.pexels.com/photos/208984/pexels-photo-208984.jpeg?auto=compress&cs=tinysrgb&fit=crop&h=627&w=1200",
        "tiny": "https://images.pexels.com/photos/208984/pexels-photo-208984.jpeg?auto=compress&cs=tinysrgb&dpr=1&fit=crop&h=200&w=280"
      },
      "liked": false,
      "alt": "短毛黑色，橙色和灰色猫"
    },
    {
      "id": 209037,
      "width": 5792,
      "height": 3660,
      "url": "https://www.pexels.com/zh-cn/photo/209037/",
      "photographer": "Pixabay",
      "photographer_url": "https://www.pexels.com/zh-cn/@pixabay",
      "photographer_id": 2659,
      "avg_color": "#9B654A",
      "src": {
        "original": "https://images.pexels.com/photos/209037/pexels-photo-209037.jpeg",
        "large2x": "https://images.pexels.com/photos/209037/pexels-photo-209037.jpeg?auto=compress&cs=tinysrgb&dpr=2&h=650&w=940",
        "large": "https://images.pexels.com/photos/209037/pexels-photo-209037.jpeg?auto=compress&cs=tinysrgb&h=650&w=940",
        "medium": "https://images.pexels.com/photos/209037/pexels-photo-209037.jpeg?auto=compress&cs=tinysrgb&h=350",
        "small": "https://images.pexels.com/photos/209037/pexels-photo-209037.jpeg?auto=compress&cs=tinysrgb&h=130",
        "portrait": "https://images.pexels.com/photos/209037/pexels-photo-209037.jpeg?auto=compress&cs=tinysrgb&fit=crop&h=1200&w=800",
        "landscape": "https://images.pexels.com/photos/209037/pexels-photo-209037.jpeg?auto=compress&cs=tinysrgb&fit=crop&h=627&w=1200",
        "tiny": "https://images.pexels.com/photos/209037/pexels-photo-209037.jpeg?auto=compress&cs=tinysrgb&dpr=1&fit=crop&h=200&w=280"
      },
      "liked": false,
      "alt": "棕色表面上的橙色虎斑猫"
    },
    {
      "id": 774731,
      "width": 5403,
      "height": 3602,
      "url": "https://www.pexels.com/zh-cn/photo/774731/",
      "photographer": "Marko Blazevic",
      "photographer_url": "https://www.pexels.com/zh-cn/@kerber",
      "photographer_id": 194642,
      "avg_color": "#624F36",
      "src": {
        "original": "https://images.pexels.com/photos/774731/pexels-photo-774731.jpeg",
        "large2x": "https://images.pexels.com/photos/774731/pexels-photo-774731.jpeg?auto=compress&cs=tinysrgb&dpr=2&h=650&w=940",
        "large": "https://images.pexels.com/photos/774731/pexels-photo-774731.jpeg?auto=compress&cs=tinysrgb&h=650&w=940",
        "medium": "https://images.pexels.com/photos/774731/pexels-photo-774731.jpeg?auto=compress&cs=tinysrgb&h=350",
        "small": "https://images.pexels.com/photos/774731/pexels-photo-774731.jpeg?auto=compress&cs=tinysrgb&h=130",
        "portrait": "https://images.pexels.com/photos/774731/pexels-photo-774731.jpeg?auto=compress&cs=tinysrgb&fit=crop&h=1200&w=800",
        "landscape": "https://images.pexels.com/photos/774731/pexels-photo-774731.jpeg?auto=compress&cs=tinysrgb&fit=crop&h=627&w=1200",
        "tiny": "https://images.pexels.com/photos/774731/pexels-photo-774731.jpeg?auto=compress&cs=tinysrgb&dpr=1&fit=crop&h=200&w=280"
      },
      "liked": false,
      "alt": "灰色小猫在地板上"
    },
    {
      "id": 69932,
      "width": 2303,
      "height": 3012,
      "url": "https://www.pexels.com/zh-cn/photo/69932/",
      "photographer": "Pixabay",
      "photographer_url": "https://www.pexels.com/zh-cn/@pixabay",
      "photographer_id": 2659,
      "avg_color": "#877F78",
      "src": {
        "original": "https://images.pexels.com/photos/69932/tabby-cat-close-up-portrait-69932.jpeg",
        "large2x": "https://images.pexels.com/photos/69932/tabby-cat-close-up-portrait-69932.jpeg?auto=compress&cs=tinysrgb&dpr=2&h=650&w=940",
        "large": "https://images.pexels.com/photos/69932/tabby-cat-close-up-portrait-69932.jpeg?auto=compress&cs=tinysrgb&h=650&w=940",
        "medium": "https://images.pexels.com/photos/69932/tabby-cat-close-up-portrait-69932.jpeg?auto=compress&cs=tinysrgb&h=350",
        "small": "https://images.pexels.com/photos/69932/tabby-cat-close-up-portrait-69932.jpeg?auto=compress&cs=tinysrgb&h=130",
        "portrait": "https://images.pexels.com/photos/69932/tabby-cat-close-up-portrait-69932.jpeg?auto=compress&cs=tinysrgb&fit=crop&h=1200&w=800",
        "landscape": "https://images.pexels.com/photos/69932/tabby-cat-close-up-portrait-69932.jpeg?auto=compress&cs=tinysrgb&fit=crop&h=627&w=1200",
        "tiny": "https://images.pexels.com/photos/69932/tabby-cat-close-up-portrait-69932.jpeg?auto=compress&cs=tinysrgb&dpr=1&fit=crop&h=200&w=280"
      },
      "liked": false,
      "alt": "特写摄影的白色和黑色的猫"
    }
  ],
  "total_results": 8000,
  "next_page": "https://api.pexels.com/v1/search/?locale=zh-CN&page=2&per_page=80&query=cat"
}
