{
  "page": 1,
  "per_page": 80,
  "photos": [
    {
      "id": 2050979,
      "width": 2933,
      "height": 3319,
      "url": "https://www.pexels.com/photo/woman-taking-selfie-2050979/",
      "photographer": "Edu Carvalho",
      "photographer_url": "https://www.pexels.com/@educarvalho",
      "photographer_id": 1026575,
      "avg_color": "#5B4E42",
      "src": {
        "original": "https://images.pexels.com/photos/2050979/pexels-photo-2050979.jpeg",
        "large2x": "https://images.pexels.com/photos/2050979/pexels-photo-2050979.jpeg?auto=compress&cs=tinysrgb&dpr=2&h=650&w=940",
        "large": "https://images.pexels.com/photos/2050979/pexels-photo-2050979.jpeg?auto=compress&cs=tinysrgb&h=650&w=940",
        "medium": "https://images.pexels.com/photos/2050979/pexels-photo-2050979.jpeg?auto=compress&cs=tinysrgb&h=350",
        "small": "https://images.pexels.com/photos/2050979/pexels-photo-2050979.jpeg?auto=compress&cs=tinysrgb&h=130",
        "portrait": "https://images.pexels.com/photos/2050979/pexels-photo-2050979.jpeg?auto=compress&cs=tinysrgb&fit=crop&h=1200&w=800",
        "landscape": "https://images.pexels.com/photos/2050979/pexels-photo-2050979.jpeg?auto=compress&cs=tinysrgb&fit=crop&h=627&w=1200",
        "tiny": "https://images.pexels.com/photos/2050979/pexels-photo-2050979.jpeg?auto=compress&cs=tinysrgb&dpr=1&fit=crop&h=200&w=280"
      },
      "liked": false,
      "alt": "Woman taking Selfie"
    },
    {
      "id": 834894,
      "width": 4800,
      "height": 3200,
      "url": "https://www.pexels.com/photo/close-up-photograph-of-two-person-holding-sparklers-834894/",
      "photographer": "JESHOOTS.com",
      "photographer_url": "https://www.pexels.com/@jeshoots-com-147458",
      "photographer_id": 147458,
      "avg_color": "#72655F",
      "src": {
        "original": "https://images.pexels.com/photos/834894/pexels-photo-834894.jpeg",
        "large2x": "https://images.pexels.com/photos/834894/pexels-photo-834894.jpeg?auto=compress&cs=tinysrgb&dpr=2&h=650&w=940",
        "large": "https://images.pexels.com/photos/834894/pexels-photo-834894.jpeg?auto=compress&cs=tinysrgb&h=650&w=940",
        "medium": "https://images.pexels.com/photos/834894/pexels-photo-834894.jpeg?auto=compress&cs=tinysrgb&h=350",
        "small": "https://images.pexels.com/photos/834894/pexels-photo-834894.jpeg?auto=compress&cs=tinysrgb&h=130",
        "portrait": "https://images.pexels.com/photos/834894/pexels-photo-834894.jpeg?auto=compress&cs=tinysrgb&fit=crop&h=1200&w=800",
        "landscape": "https://images.pexels.com/photos/834894/pexels-photo-834894.jpeg?auto=compress&cs=tinysrgb&fit=crop&h=627&w=1200",
        "tiny": "https://images.pexels.com/photos/834894/pexels-photo-834894.jpeg?auto=compress&cs=tinysrgb&dpr=1&fit=crop&h=200&w=280"
      },
      "liked": false,
      "alt": "Close Up Photograph of Two Person Holding Sparklers"
    },
    {
      "id": 267961,
      "width": 4956,
      "height": 3304,
      "url": "https://www.pexels.com/photo/action-adult-art-beauty-267961/",
      "photographer": "Pixabay",
      "photographer_url": "https://www.pexels.com/@pixabay",
      "photographer_id": 2659,
      "avg_color": "#384A53",
      "src": {
        "original": "https://images.pexels.com/photos/267961/pexels-photo-267961.jpeg",
        "large2x": "https://images.pexels.com/photos/267961/pexels-photo-267961.jpeg?auto=compress&cs=tinysrgb&dpr=2&h=650&w=940",
        "large": "https://images.pexels.com/photos/267961/pexels-photo-267961.jpeg?auto=compress&cs=tinysrgb&h=650&w=940",
        "medium": "https://images.pexels.com/photos/267961/pexels-photo-267961.jpeg?auto=compress&cs=tinysrgb&h=350",
        "small": "https://images.pexels.com/photos/267961/pexels-photo-267961.jpeg?auto=compress&cs=tinysrgb&h=130",
        "portrait": "https://images.pexels.com/photos/267961/pexels-photo-267961.jpeg?auto=compress&cs=tinysrgb&fit=crop&h=1200&w=800",
        "landscape": "https://images.pexels.com/photos/267961/pexels-photo-267961.jpeg?auto=compress&cs=tinysrgb&fit=crop&h=627&w=1200",
        "tiny": "https://images.pexels.com/photos/267961/pexels-photo-267961.jpeg?auto=compress&cs=tinysrgb&dpr=1&fit=crop&h=200&w=280"
      },
      "liked": false,
      "alt": "Man Wearing White Full-face Motorcycle Helmet"
    },
    {
      "id": 903171,
      "width": 5888,
      "height": 3925,
      "url": "https://www.pexels.com/photo/women-having-exercise-using-dumbbells-903171/",
      "photographer": "Andrea Piacquadio",
      "photographer_url": "https://www.pexels.com/@olly",
      "photographer_id": 224453,
      "avg_color": "#948E8B",
      "src": {
        "original": "https://images.pexels.com/photos/903171/pexels-photo-903171.jpeg",
        "large2x": "https://images.pexels.com/photos/903171/pexels-photo-903171.jpeg?auto=compress&cs=tinysrgb&dpr=2&h=650&w=940",
        "large": "https://images.pexels.com/photos/903171/pexels-photo-903171.jpeg?auto=compress&cs=tinysrgb&h=650&w=940",
        "medium": "https://images.pexels.com/photos/903171/pexels-photo-903171.jpeg?auto=compress&cs=tinysrgb&h=350",
        "small": "https://images.pexels.com/photos/903171/pexels-photo-903171.jpeg?auto=compress&cs=tinysrgb&h=130",
        "portrait": "https://images.pexels.com/photos/903171/pexels-photo-903171.jpeg?auto=compress&cs=tinysrgb&fit=crop&h=1200&w=800",
        "landscape": "https://images.pexels.com/photos/903171/pexels-photo-903171.jpeg?auto=compress&cs=tinysrgb&fit=crop&h=627&w=1200",
        "tiny": "https://images.pexels.com/photos/903171/pexels-photo-903171.jpeg?auto=compress&cs=tinysrgb&dpr=1&fit=crop&h=200&w=280"
      },
      "liked": false,
      "alt": "Women Having Exercise Using Dumbbells"
    },
    {
      "id": 1087735,
      "width": 4256,
      "height": 2532,
      "url": "https://www.pexels.com/photo/silhouette-of-man-standing-on-mountain-cliff-1087735/",
      "photographer": "Min An",
      "photographer_url": "https://www.pexels.com/@minan1398",
      "photographer_id": 206851,
      "avg_color": "#6E858B",
      "src": {
        "original": "https://images.pexels.com/photos/1087735/pexels-photo-1087735.jpeg",
        "large2x": "https://images.pexels.com/photos/1087735/pexels-photo-1087735.jpeg?auto=compress&cs=tinysrgb&dpr=2&h=650&w=940",
        "large": "https://images.pexels.com/photos/1087735/pexels-photo-1087735.jpeg?auto=compress&cs=tinysrgb&h=650&w=940",
        "medium": "https://images.pexels.com/photos/1087735/pexels-photo-1087735.jpeg?auto=compress&cs=tinysrgb&h=350",
        "small": "https://images.pexels.com/photos/1087735/pexels-photo-1087735.jpeg?auto=compress&cs=tinysrgb&h=130",
        "portrait": "https://images.pexels.com/photos/1087735/pexels-photo-1087735.jpeg?auto=compress&cs=tinysrgb&fit=crop&h=1200&w=800",
        "landscape": "https://images.pexels.com/photos/1087735/pexels-photo-1087735.jpeg?auto=compress&cs=tinysrgb&fit=crop&h=627&w=1200",
        "tiny": "https://images.pexels.com/photos/1087735/pexels-photo-1087735.jpeg?auto=compress&cs=tinysrgb&dpr=1&fit=crop&h=200&w=280"
      },
      "liked": false,
      "alt": "Silhouette of Man Standing on Mountain Cliff"
    },
    {
      "id": 45201,
      "width": 2392,
      "height": 2500,
      "url": "https://www.pexels.com/zh-cn/photo/45201/",
      "photographer": "Pixabay",
      "photographer_url": "https://www.pexels.com/zh-cn/@pixabay",
      "photographer_id": 2659,
      "avg_color": "#4E4340",
      "src": {
        "original": "https://images.pexels.com/photos/45201/kitty-cat-kitten-pet-45201.jpeg",
        "large2x": "https://images.pexels.com/photos/45201/kitty-cat-kitten-pet-45201.jpeg?auto=compress&cs=tinysrgb&dpr=2&h=650&w=940",
        "large": "https://images.pexels.com/photos/45201/kitty-cat-kitten-pet-45201.jpeg?auto=compress&cs=tinysrgb&h=650&w=940",
        "medium": "https://images.pexels.com/photos/45201/kitty-cat-kitten-pet-45201.jpeg?auto=compress&cs=tinysrgb&h=350",
        "small": "https://images.pexels.com/photos/45201/kitty-cat-kitten-pet-45201.jpeg?auto=compress&cs=tinysrgb&h=130",
        "portrait": "https://images.pexels.com/photos/45201/kitty-cat-kitten-pet-45201.jpeg?auto=compress&cs=tinysrgb&fit=crop&h=1200&w=800",
        "landscape": "https://images.pexels.com/photos/45201/kitty-cat-kitten-pet-45201.jpeg?auto=compress&cs=tinysrgb&fit=crop&h=627&w=1200",
        "tiny": "https://images.pexels.com/photos/45201/kitty-cat-kitten-pet-45201.jpeg?auto=compress&cs=tinysrgb&dpr=1&fit=crop&h=200&w=280"
      },
      "liked": false,
      "alt": "棕色和黑色豹纹印花织物上的白色和灰色小猫"
    },
    {
      "id": 617278,
      "width": 4928,
      "height": 3264,
      "url": "https://www.pexels.com/zh-cn/photo/617278/",
      "photographer": "Kelvin Valerio",
      "photographer_url": "https://www.pexels.com/zh-cn/@kelvin809",
      "photographer_id": 135974,
      "avg_color": "#20201C",
      "src": {
        "original": "https://images.pexels.com/photos/617278/pexels-photo-617278.jpeg",
        "large2x": "https://images.pexels.com/photos/617278/pexels-photo-617278.jpeg?auto=compress&cs=tinysrgb&dpr=2&h=650&w=940",
        "large": "https://images.pexels.com/photos/617278/pexels-photo-617278.jpeg?auto=compress&cs=tinysrgb&h=650&w=940",
        "medium": "https://images.pexels.com/photos/617278/pexels-photo-617278.jpeg?auto=compress&cs=tinysrgb&h=350",
        "small": "https://images.pexels.com/photos/617278/pexels-photo-617278.jpeg?auto=compress&cs=tinysrgb&h=130",
        "portrait": "https://images.pexels.com/photos/617278/pexels-photo-617278.jpeg?auto=compress&cs=tinysrgb&fit=crop&h=1200&w=800",
        "landscape": "https://images.pexels.com/photos/617278/pexels-photo-617278.jpeg?auto=compress&cs=tinysrgb&fit=crop&h=627&w=1200",
        "tiny": "https://images.pexels.com/photos/617278/pexels-photo-617278.jpeg?auto=compress&cs=tinysrgb&dpr=1&fit=crop&h=200&w=280"
      },
      "liked": false,
      "alt": "绿眼睛的棕猫"
    },
    {
      "id": 104827,
      "width": 5360,
      "height": 3560,
      "url": "https://www.pexels.com/zh-cn/photo/104827/",
      "photographer": "Pixabay",
      "photographer_url": "https://www.pexels.com/zh-cn/@pixabay",
      "photographer_id": 2659,
      "avg_color": "#D2D0D1",
      "src": {
        "original": "https://images.pexels.com/photos/104827/cat-pet-animal-domestic-104827.jpeg",
        "large2x": "https://images.pexels.com/photos/104827/cat-pet-animal-domestic-104827.jpeg?auto=compress&cs=tinysrgb&dpr=2&h=650&w=940",
        "large": "https://images.pexels.com/photos/104827/cat-pet-animal-domestic-104827.jpeg?auto=compress&cs=tinysrgb&h=650&w=940",
        "medium": "https://images.pexels.com/photos/104827/cat-pet-animal-domestic-104827.jpeg?auto=compress&cs=tinysrgb&h=350",
        "small": "https://images.pexels.com/photos/104827/cat-pet-animal-domestic-104827.jpeg?auto=compress&cs=tinysrgb&h=130",
        "portrait": "https://images.pexels.com/photos/104827/cat-pet-animal-domestic-104827.jpeg?auto=compress&cs=tinysrgb&fit=crop&h=1200&w=800",
        "landscape": "https://images.pexels.com/photos/104827/cat-pet-animal-domestic-104827.jpeg?auto=compress&cs=tinysrgb&fit=crop&h=627&w=1200",
        "tiny": "https://images.pexels.com/photos/104827/cat-pet-animal-domestic-104827.jpeg?auto=compress&cs=tinysrgb&dpr=1&fit=crop&h=200&w=280"
      },
      "liked": false,
      "alt": "灰色和白色短毛猫"
    },
    {
      "id": 416160,
      "width": 3888,
      "height": 2592,
      "url": "https://www.pexels.com/zh-cn/photo/416160/",
      "photographer": "Pixabay",
      "photographer_url": "https://www.pexels.com/zh-cn/@pixabay",
      "photographer_id": 2659,
      "avg_color": "#AB9488",
      "src": {
        "original": "https://images.pexels.com/photos/416160/pexels-photo-416160.jpeg",
        "large2x": "https://images.pexels.com/photos/416160/pexels-photo-416160.jpeg?auto=compress&cs=tinysrgb&dpr=2&h=650&w=940",
        "large": "https://images.pexels.com/photos/416160/pexels-photo-416160.jpeg?auto=compress&cs=tinysrgb&h=650&w=940",
        "medium": "https://images.pexels.com/photos/416160/pexels-photo-416160.jpeg?auto=compress&cs=tinysrgb&h=350",
        "small": "https://images.pexels.com/photos/416160/pexels-photo-416160.jpeg?auto=compress&cs=tinysrgb&h=130",
        "portrait": "https://images.pexels.com/photos/416160/pexels-photo-416160.jpeg?auto=compress&cs=tinysrgb&fit=crop&h=1200&w=800",
        "landscape": "https://images.pexels.com/photos/416160/pexels-photo-416160.jpeg?auto=compress&cs=tinysrgb&fit=crop&h=627&w=1200",
        "tiny": "https://images.pexels.com/photos/416160/pexels-photo-416160.jpeg?auto=compress&cs=tinysrgb&dpr=1&fit=crop&h=200&w=280"
      },
      "liked": false,
      "alt": "小猫躺在表面"
    },
    {
      "id": 320014,
      "width": 1239,
      "height": 1800,
      "url": "https://www.pexels.com/zh-cn/photo/320014/",
      "photographer": "Henda Watani",
      "photographer_url": "https://www.pexels.com/zh-cn/@wonda-stella",
      "photographer_id": 102277,
      "avg_color": "#3A3940",
      "src": {
        "original": "https://images.pexels.com/photos/320014/pexels-photo-320014.jpeg",
        "large2x": "https://images.pexels.com/photos/320014/pexels-photo-320014.jpeg?auto=compress&cs=tinysrgb&dpr=2&h=650&w=940",
        "large": "https://images.pexels.com/photos/320014/pexels-photo-320014.jpeg?auto=compress&cs=tinysrgb&h=650&w=940",
        "medium": "https://images.pexels.com/photos/320014/pexels-photo-320014.jpeg?auto=compress&cs=tinysrgb&h=350",
        "small": "https://images.pexels.com/photos/320014/pexels-photo-320014.jpeg?auto=compress&cs=tinysrgb&h=130",
        "portrait": "https://images.pexels.com/photos/320014/pexels-photo-320014.jpeg?auto=compress&cs=tinysrgb&fit=crop&h=1200&w=800",
        "landscape": "https://images.pexels.com/photos/320014/pexels-photo-320014.jpeg?auto=compress&cs=tinysrgb&fit=crop&h=627&w=1200",
        "tiny": "https://images.pexels.com/photos/320014/pexels-photo-320014.jpeg?auto=compress&cs=tinysrgb&dpr=1&fit=crop&h=200&w=280"
      },
      "liked": false,
      "alt": "猫的特写"
    }
  ],
  "total_results": 8000,
  "next_page": "https://api.pexels.com/v1/search/?locale=zh-CN&page=2&per_page=80&query=cat"
}
